<svg width="133" height="25" viewBox="0 0 133 25" fill="none" xmlns="http://www.w3.org/2000/svg">
<path d="M40.7687 7.7529C40.2041 7.1385 39.654 6.7289 39.1184 6.5241C38.5972 6.3193 38.0689 6.2169 37.5332 6.2169C36.737 6.2169 36.0132 6.36319 35.3618 6.65576C34.7249 6.9337 34.1748 7.32867 33.7115 7.84067C33.2483 8.33804 32.8864 8.92319 32.6258 9.5961C32.3797 10.269 32.2567 10.9931 32.2567 11.7684C32.2567 12.6023 32.3797 13.3703 32.6258 14.0724C32.8864 14.7746 33.2483 15.3817 33.7115 15.8937C34.1748 16.4057 34.7249 16.808 35.3618 17.1006C36.0132 17.3931 36.737 17.5394 37.5332 17.5394C38.1557 17.5394 38.7565 17.3931 39.3355 17.1006C39.929 16.7934 40.4791 16.3106 40.9858 15.6523L43.2441 17.2761C42.5492 18.2416 41.7024 18.9438 40.7035 19.3826C39.7047 19.8215 38.6407 20.0409 37.5115 20.0409C36.3245 20.0409 35.2315 19.8507 34.2327 19.4704C33.2483 19.0754 32.3942 18.5268 31.6704 17.8247C30.961 17.1079 30.4037 16.2521 29.9984 15.2574C29.593 14.2626 29.3904 13.1582 29.3904 11.944C29.3904 10.7006 29.593 9.57416 29.9984 8.56479C30.4037 7.54079 30.961 6.67039 31.6704 5.95359C32.3942 5.23679 33.2483 4.68821 34.2327 4.30787C35.2315 3.9129 36.3245 3.71542 37.5115 3.71542C38.5538 3.71542 39.5165 3.90559 40.3995 4.28593C41.297 4.65164 42.1294 5.28067 42.8967 6.17301L40.7687 7.7529Z" fill="#051226"/>
<path d="M44.4073 9.11336H47.0131V10.781H47.0565C47.346 10.1666 47.7586 9.69119 48.2942 9.35473C48.8298 9.01827 49.4451 8.85004 50.1399 8.85004C50.2991 8.85004 50.4511 8.86467 50.5959 8.89393C50.7551 8.92319 50.9144 8.95976 51.0736 9.00364V11.549C50.8565 11.4905 50.6393 11.4466 50.4222 11.4174C50.2195 11.3735 50.0169 11.3515 49.8142 11.3515C49.2062 11.3515 48.714 11.4686 48.3376 11.7026C47.9757 11.922 47.6934 12.178 47.4908 12.4706C47.3026 12.7632 47.1723 13.0558 47.0999 13.3483C47.042 13.6409 47.0131 13.8603 47.0131 14.0066V19.6459H44.4073V9.11336Z" fill="#051226"/>
<path d="M54.1157 15.3012C54.2025 16.0912 54.5065 16.7056 55.0277 17.1444C55.5488 17.5833 56.1785 17.8027 56.9168 17.8027C57.5682 17.8027 58.1111 17.6711 58.5454 17.4078C58.9941 17.1298 59.385 16.786 59.7179 16.3764L61.5854 17.8027C60.9774 18.5634 60.297 19.1047 59.5442 19.4265C58.7915 19.7483 58.0025 19.9092 57.1774 19.9092C56.3957 19.9092 55.6574 19.7776 54.9625 19.5143C54.2677 19.251 53.6669 18.8779 53.1602 18.3952C52.6536 17.9124 52.2482 17.3346 51.9442 16.6617C51.6547 15.9742 51.5099 15.2135 51.5099 14.3796C51.5099 13.5458 51.6547 12.7924 51.9442 12.1195C52.2482 11.432 52.6536 10.8468 53.1602 10.3641C53.6669 9.88136 54.2677 9.50833 54.9625 9.24501C55.6574 8.9817 56.3957 8.85004 57.1774 8.85004C57.9012 8.85004 58.5599 8.9817 59.1534 9.24501C59.7614 9.4937 60.2753 9.85941 60.6951 10.3422C61.1294 10.8249 61.4623 11.4247 61.6939 12.1415C61.94 12.8436 62.0631 13.6555 62.0631 14.5771V15.3012H54.1157ZM59.4574 13.3264C59.4429 12.5511 59.204 11.944 58.7408 11.5051C58.2776 11.0516 57.6334 10.8249 56.8082 10.8249C56.0265 10.8249 55.404 11.0516 54.9408 11.5051C54.492 11.9586 54.217 12.5657 54.1157 13.3264H59.4574Z" fill="#051226"/>
<path d="M72.317 18.066H72.2736C71.8972 18.7097 71.3905 19.1778 70.7536 19.4704C70.1166 19.763 69.429 19.9092 68.6907 19.9092C67.88 19.9092 67.1562 19.7703 66.5193 19.4923C65.8968 19.1998 65.3612 18.8048 64.9124 18.3074C64.4636 17.81 64.1235 17.2249 63.8918 16.552C63.6602 15.8791 63.5444 15.155 63.5444 14.3796C63.5444 13.6043 63.6675 12.8802 63.9136 12.2073C64.1596 11.5344 64.4998 10.9492 64.9341 10.4519C65.3829 9.9545 65.9185 9.56684 66.541 9.2889C67.1635 8.99633 67.8438 8.85004 68.5821 8.85004C69.0743 8.85004 69.5086 8.90124 69.885 9.00364C70.2614 9.10604 70.5943 9.2377 70.8838 9.39861C71.1734 9.55953 71.4195 9.73507 71.6221 9.92524C71.8248 10.1008 71.9913 10.2763 72.1216 10.4519H72.1867V3.05713H74.7924V19.6459H72.317V18.066ZM66.1501 14.3796C66.1501 14.7892 66.2153 15.1842 66.3456 15.5646C66.4903 15.9449 66.693 16.2814 66.9536 16.5739C67.2286 16.8665 67.5543 17.1006 67.9307 17.2761C68.3071 17.4516 68.7341 17.5394 69.2118 17.5394C69.6896 17.5394 70.1166 17.4516 70.493 17.2761C70.8694 17.1006 71.1878 16.8665 71.4484 16.5739C71.7235 16.2814 71.9261 15.9449 72.0564 15.5646C72.2012 15.1842 72.2736 14.7892 72.2736 14.3796C72.2736 13.97 72.2012 13.5751 72.0564 13.1947C71.9261 12.8144 71.7235 12.4779 71.4484 12.1854C71.1878 11.8928 70.8694 11.6587 70.493 11.4832C70.1166 11.3076 69.6896 11.2199 69.2118 11.2199C68.7341 11.2199 68.3071 11.3076 67.9307 11.4832C67.5543 11.6587 67.2286 11.8928 66.9536 12.1854C66.693 12.4779 66.4903 12.8144 66.3456 13.1947C66.2153 13.5751 66.1501 13.97 66.1501 14.3796Z" fill="#051226"/>
<path d="M77.3734 9.11336H79.9791V19.6459H77.3734V9.11336ZM77.0042 5.53667C77.0042 5.11244 77.1562 4.74673 77.4602 4.43953C77.7787 4.1177 78.1768 3.95679 78.6545 3.95679C79.1322 3.95679 79.5303 4.11039 79.8488 4.41759C80.1817 4.71016 80.3482 5.08319 80.3482 5.53667C80.3482 5.99016 80.1817 6.3705 79.8488 6.6777C79.5303 6.97027 79.1322 7.11656 78.6545 7.11656C78.1768 7.11656 77.7787 6.96296 77.4602 6.65576C77.1562 6.33393 77.0042 5.9609 77.0042 5.53667Z" fill="#051226"/>
<path d="M81.3203 11.3515V9.11336H83.47V6.0633H86.0757V9.11336H88.942V11.3515H86.0757V15.9595C86.0757 16.4862 86.1698 16.9031 86.358 17.2103C86.5607 17.5175 86.9515 17.6711 87.5306 17.6711C87.7622 17.6711 88.0155 17.6491 88.2906 17.6052C88.5656 17.5467 88.7827 17.459 88.942 17.3419V19.5582C88.6669 19.6898 88.3267 19.7776 87.9214 19.8215C87.5306 19.88 87.1831 19.9092 86.8791 19.9092C86.1843 19.9092 85.6125 19.8288 85.1637 19.6679C84.7294 19.5216 84.382 19.2948 84.1214 18.9876C83.8753 18.6658 83.7016 18.2708 83.6003 17.8027C83.5134 17.3346 83.47 16.7934 83.47 16.179V11.3515H81.3203Z" fill="#051226"/>
<path d="M96.7715 4.11039H99.5075V10.6932H99.6378L106 4.11039H109.692L102.504 11.2857L110.169 19.6459H106.326L99.6595 12.0098H99.5075V19.6459H96.7715V4.11039Z" fill="#051226"/>
<path d="M113.048 15.3012C113.135 16.0912 113.439 16.7056 113.96 17.1444C114.481 17.5833 115.111 17.8027 115.849 17.8027C116.5 17.8027 117.043 17.6711 117.478 17.4078C117.926 17.1298 118.317 16.786 118.65 16.3764L120.518 17.8027C119.91 18.5634 119.229 19.1047 118.476 19.4265C117.724 19.7483 116.935 19.9092 116.11 19.9092C115.328 19.9092 114.59 19.7776 113.895 19.5143C113.2 19.251 112.599 18.8779 112.092 18.3952C111.586 17.9124 111.18 17.3346 110.876 16.6617C110.587 15.9742 110.442 15.2135 110.442 14.3796C110.442 13.5458 110.587 12.7924 110.876 12.1195C111.18 11.432 111.586 10.8468 112.092 10.3641C112.599 9.88136 113.2 9.50833 113.895 9.24501C114.59 8.9817 115.328 8.85004 116.11 8.85004C116.833 8.85004 117.492 8.9817 118.086 9.24501C118.694 9.4937 119.208 9.85941 119.627 10.3422C120.062 10.8249 120.395 11.4247 120.626 12.1415C120.872 12.8436 120.995 13.6555 120.995 14.5771V15.3012H113.048ZM118.39 13.3264C118.375 12.5511 118.136 11.944 117.673 11.5051C117.21 11.0516 116.566 10.8249 115.74 10.8249C114.959 10.8249 114.336 11.0516 113.873 11.5051C113.424 11.9586 113.149 12.5657 113.048 13.3264H118.39Z" fill="#051226"/>
<path d="M121.586 9.11336H124.453L127.362 16.4203H127.406L130.012 9.11336H132.726L127.797 21.906C127.608 22.4034 127.399 22.835 127.167 23.2007C126.95 23.581 126.689 23.8955 126.385 24.1442C126.081 24.4075 125.719 24.5977 125.299 24.7147C124.894 24.8464 124.402 24.9122 123.823 24.9122C123.143 24.9122 122.477 24.8244 121.825 24.6489L122.151 22.2791C122.354 22.3522 122.564 22.4107 122.781 22.4546C123.012 22.5131 123.244 22.5424 123.476 22.5424C123.794 22.5424 124.062 22.5131 124.279 22.4546C124.496 22.3961 124.677 22.301 124.822 22.1694C124.981 22.0523 125.111 21.8914 125.213 21.6866C125.314 21.4964 125.423 21.2624 125.538 20.9844L126.038 19.7337L121.586 9.11336Z" fill="#051226"/>
<path fill-rule="evenodd" clip-rule="evenodd" d="M11.0769 0C4.95931 0 0 4.95931 0 11.0769H11.0769V0ZM11.0769 12.9231H0C0 19.0407 4.95931 24 11.0769 24V12.9231ZM12.9231 0H24C24 6.11762 19.0407 11.0769 12.9231 11.0769V0ZM24 24C24 17.8824 19.0407 12.9231 12.9231 12.9231V24H24Z" fill="#0A60E0"/>
</svg>
