<svg width="14" height="18" viewBox="0 0 14 18" fill="none" xmlns="http://www.w3.org/2000/svg">
<path d="M0.109375 14.1094C0.109375 15.9453 1.17969 17.0156 3.00781 17.0156H10.9922C12.8203 17.0156 13.8906 15.9453 13.8906 14.1094V3.23438C13.8906 1.39844 12.8203 0.328125 10.9922 0.328125H3.00781C1.17969 0.328125 0.109375 1.39844 0.109375 3.23438V14.1094ZM2.73438 13.7109V3.63281C2.73438 3.17969 2.92188 2.95312 3.41406 2.95312H10.5859C11.0781 2.95312 11.2656 3.17969 11.2656 3.63281V13.7109C11.2656 14.1641 11.0781 14.3906 10.5859 14.3906H3.41406C2.92188 14.3906 2.73438 14.1641 2.73438 13.7109ZM4.74219 5.29688H9.30469C9.60938 5.29688 9.83594 5.0625 9.83594 4.75781C9.83594 4.46875 9.60938 4.24219 9.30469 4.24219H4.74219C4.42969 4.24219 4.20312 4.46875 4.20312 4.75781C4.20312 5.0625 4.42969 5.29688 4.74219 5.29688ZM4.74219 7.3125H7.35938C7.65625 7.3125 7.88281 7.07812 7.88281 6.77344C7.88281 6.48438 7.65625 6.25781 7.35938 6.25781H4.74219C4.42969 6.25781 4.20312 6.48438 4.20312 6.77344C4.20312 7.07812 4.42969 7.3125 4.74219 7.3125ZM4.82031 13.2812H9.20312C9.75 13.2812 10.0312 13 10.0312 12.4609V9.09375C10.0312 8.55469 9.75 8.27344 9.20312 8.27344H4.82031C4.28906 8.27344 3.97656 8.55469 3.97656 9.09375V12.4609C3.97656 13 4.28906 13.2812 4.82031 13.2812Z" fill="white"/>
</svg>
