<svg width="16" height="16" viewBox="0 0 16 16" fill="none" xmlns="http://www.w3.org/2000/svg">
<path fill-rule="evenodd" clip-rule="evenodd" d="M9.68632 3.64645C9.88158 3.84171 9.88158 4.15829 9.68632 4.35355L6.03987 8L9.68632 11.6464C9.88158 11.8417 9.88158 12.1583 9.68632 12.3536C9.49106 12.5488 9.17447 12.5488 8.97921 12.3536L4.97921 8.35355C4.78395 8.15829 4.78395 7.84171 4.97921 7.64645L8.97921 3.64645C9.17447 3.45118 9.49106 3.45118 9.68632 3.64645Z" fill="#051226"/>
</svg>
