<svg width="24" height="24" viewBox="0 0 24 24" fill="none" xmlns="http://www.w3.org/2000/svg">
<path fill-rule="evenodd" clip-rule="evenodd" d="M5 11.6164C5 11.0771 4.29149 10.7691 3.91014 11.1505L2.53033 12.5303C2.23744 12.8232 1.76256 12.8232 1.46967 12.5303C1.17678 12.2374 1.17678 11.7625 1.46967 11.4696L8.64125 4.29804L8.67802 4.26127C8.67802 4.26126 8.67802 4.26126 8.67802 4.26126C8.67802 4.26126 8.67802 4.26126 8.67802 4.26126C9.31332 3.62592 9.84308 3.09613 10.3202 2.7321C10.8238 2.34787 11.3559 2.07837 12 2.07837C12.6441 2.07837 13.1762 2.34787 13.6798 2.7321C14.1569 3.09613 14.6867 3.62593 15.322 4.26127L15.322 4.26128L15.3588 4.29804L22.5303 11.4696C22.8232 11.7625 22.8232 12.2374 22.5303 12.5303C22.2374 12.8232 21.7626 12.8232 21.4697 12.5303L20.0899 11.1505C19.7085 10.7691 19 11.0771 19 11.6164V15C19 17.8284 19 19.2426 18.1213 20.1213C17.2426 21 15.8284 21 13 21H11C8.17157 21 6.75736 21 5.87868 20.1213C5 19.2426 5 17.8284 5 15V11.6164Z" fill="#0A60E0"/>
</svg>
