<svg width="16" height="16" viewBox="0 0 16 16" fill="none" xmlns="http://www.w3.org/2000/svg">
<path fill-rule="evenodd" clip-rule="evenodd" d="M3.64645 5.64645C3.84171 5.45118 4.15829 5.45118 4.35355 5.64645L8 9.29289L11.6464 5.64645C11.8417 5.45118 12.1583 5.45118 12.3536 5.64645C12.5488 5.84171 12.5488 6.15829 12.3536 6.35355L8.35355 10.3536C8.15829 10.5488 7.84171 10.5488 7.64645 10.3536L3.64645 6.35355C3.45118 6.15829 3.45118 5.84171 3.64645 5.64645Z" fill="#051226"/>
<path fill-rule="evenodd" clip-rule="evenodd" d="M3.64645 5.64645C3.84171 5.45118 4.15829 5.45118 4.35355 5.64645L8 9.29289L11.6464 5.64645C11.8417 5.45118 12.1583 5.45118 12.3536 5.64645C12.5488 5.84171 12.5488 6.15829 12.3536 6.35355L8.35355 10.3536C8.15829 10.5488 7.84171 10.5488 7.64645 10.3536L3.64645 6.35355C3.45118 6.15829 3.45118 5.84171 3.64645 5.64645Z" fill="white" fill-opacity="0.4"/>
</svg>
